{
  "profiles": {
    "Otus.Teaching.PromoCodeFactory.IntegrationTests": {
      "commandName": "Project",
      "launchBrowser": true,
      "environmentVariables": {
        "ASPNETCORE_ENVIRONMENT": "Development"
      },
      "applicationUrl": "https://localhost:64612;http://localhost:64613"
    }
  }
}